{
  "timeout": 10,
  "tests": {
    "subscribe": {
      "from plugin": {
        "client2plugin": {
          "bus2bus": {
            "answers subscription": {
              "times": 4,
              "errors": 0
            }
          }
        }
      }
    },
    "publish": {
      "from plugin": {
        "client2plugin": {
          "bus2bus": {
            "propagates to subscribers": {
              "times": 13,
              "errors": 0
            }
          }
        }
      }
    },
    "peer api": {
      "from plugin": {
        "client2plugin": {
          "bus2bus": {
            "passess call method": {
              "times": 3,
              "errors": 0
            }
          }
        }
      }
    },
    "api": {
      "form client": {
        "client2plugin": {
          "bus2bus": {
            "passes call method": {
              "times": 4,
              "errors": 0
            },
            "answers successful call": {
              "times": 4,
              "errors": 0
            },
            "answers unsuccessful call": {
              "times": 4,
              "errors": 0
            },
            "rejects non-existent plugin": {
              "times": 3,
              "errors": 0
            },
            "rejects non-existent method": {
              "times": 5,
              "errors": 0
            }
          }
        }
      }
    },
    "describe-apis": {
      "form client": {
        "client2plugin": {
          "bus2bus": {
            "returns existing plugins with methods": {
              "times": 14,
              "errors": 0
            }
          }
        }
      }
    },
    "describe-api": {
      "form client": {
        "client2plugin": {
          "bus2bus": {
            "returns method for existing plugin": {
              "times": 16,
              "errors": 0
            },
            "returns Plugin unavailable for non-existent plugins": {
              "times": 18,
              "errors": 0
            }
          }
        }
      }
    },
    "stack": {
      "requires private key to instantiate": {
        "times": 26,
        "errors": 0
      },
      "lists no subscribers at first": {
        "times": 21,
        "errors": 0
      },
      "lists no guards at first": {
        "times": 30,
        "errors": 0
      },
      "lists no token providers at first": {
        "times": 30,
        "errors": 0
      },
      "lists no plugins at first": {
        "times": 23,
        "errors": 0
      },
      "drops a plugin if it disconnects": {
        "times": 28,
        "errors": 0
      }
    },
    ".getPublicKey": {
      "stack": {
        "returns public key": {
          "times": 17,
          "errors": 0
        }
      }
    },
    ".getPrivateKey": {
      "stack": {
        "returns public key": {
          "times": 22,
          "errors": 0
        }
      }
    },
    ".addSubscriber": {
      "stack": {
        "adds a subscriber": {
          "times": 17,
          "errors": 0
        }
      }
    },
    ".publish": {
      "stack": {
        "publishes to subscribers": {
          "times": 35,
          "errors": 0
        }
      }
    },
    ".addPlugin": {
      "stack": {
        "adds a plugin": {
          "times": 25,
          "errors": 0
        }
      }
    },
    ".invokeMethod": {
      "stack": {
        "invokes method": {
          "times": 30,
          "errors": 0
        }
      }
    },
    ".listenSocket": {
      "stack": {
        "emits identify": {
          "times": 31,
          "errors": 0
        },
        "accepts plugin": {
          "times": 31,
          "errors": 0
        }
      }
    },
    ".authorizeGuardPublicKey": {
      "stack": {
        "accepts a valid key": {
          "times": 37,
          "errors": 0
        },
        "rejects an invalid key": {
          "times": 29,
          "errors": 0
        }
      }
    },
    ".addClient": {
      "stack": {
        "requires socket": {
          "times": 29,
          "errors": 0
        }
      }
    },
    ".removeSocket": {
      ".addClient": {
        "stack": {
          "removes all listeners": {
            "times": 30,
            "errors": 0
          }
        }
      }
    },
    "describe-token-providers event": {
      ".addClient": {
        "stack": {
          "listents describe-token-providers": {
            "times": 23,
            "errors": 0
          }
        }
      }
    },
    "api event": {
      ".addClient": {
        "stack": {
          "listens api": {
            "times": 6,
            "errors": 0
          },
          "accepts no token, gives no context": {
            "times": 29,
            "errors": 0
          },
          "passes unsuccessful result back": {
            "times": 6,
            "errors": 0
          },
          "passes successful result back": {
            "times": 5,
            "errors": 0
          }
        }
      }
    },
    "get-token event": {
      ".addClient": {
        "stack": {
          "passes call": {
            "times": 25,
            "errors": 0
          },
          "passes successful response": {
            "times": 4,
            "errors": 0
          },
          "passes error response": {
            "times": 22,
            "errors": 0
          }
        }
      }
    },
    "describe-apis event": {
      ".addClient": {
        "stack": {
          "listens event": {
            "times": 25,
            "errors": 0
          }
        }
      }
    },
    ".addGuardCheck": {
      "stack": {
        "adds valid code": {
          "times": 14,
          "errors": 14
        }
      }
    },
    ".runCheck": {
      ".addGuardCheck": {
        "stack": {
          "checks": {
            "times": 17,
            "errors": 17
          },
          "does not check": {
            "times": 14,
            "errors": 14
          },
          "runs checks on .invokeMethod": {
            "times": 7,
            "errors": 0
          }
        }
      }
    },
    ".addGuard": {
      "stack": {
        "adds guard socket": {
          "times": 22,
          "errors": 0
        },
        "listens add-check": {
          "times": 6,
          "errors": 0
        },
        "rejects add-check if badly signed": {
          "times": 6,
          "errors": 0
        },
        "drops guard on disconnect": {
          "times": 33,
          "errors": 0
        }
      }
    },
    ".addTokenProvider": {
      "stack": {
        "fails to add it if no socket is provided": {
          "times": 30,
          "errors": 0
        },
        "fails to add it if no name is provided": {
          "times": 35,
          "errors": 0
        },
        "fails to add it if no methods is provided": {
          "times": 31,
          "errors": 0
        },
        "fails to add it if no public key is provided": {
          "times": 38,
          "errors": 0
        },
        "adds a token provider": {
          "times": 21,
          "errors": 0
        },
        "verifies token": {
          "times": 3,
          "errors": 0
        }
      }
    },
    ".getContextFromToken": {
      "stack": {
        "decodes token context": {
          "times": 7,
          "errors": 0
        }
      }
    },
    ".getToken": {
      "stack": {
        "passes call to token provider": {
          "times": 21,
          "errors": 0
        }
      }
    }
  }
}